3 Sampling the Imaginary | Chapter 03. Sampling the Imaginary
…
Now we follow along with McElreath’s R code 3.11 to compute a highly skewed posterior. We’ve already defined p and prior within d, above. Here we’ll reuse them and update the rest of the columns.

BinomialGrid3of3 <- binomial_grid(3, 3)

# make the next part reproducible
set.seed(3)

# here's our new samples tibble
(
  Samples3of3 <-
    BinomialGrid3of3 %>% 
    slice_sample(n = n_samples, weight_by = posterior, replace = TRUE)
)

## # A tibble: 10,000 x 4
##        p    prior likelihood posterior
##    <dbl>    <dbl>      <dbl>     <dbl>
##  1 0.716 0.000999   0.00147   0.00147 
##  2 0.651 0.000999   0.00110   0.00110 
##  3 0.547 0.000999   0.000653  0.000653
##  4 0.999 0.000999   0.00398   0.00398 
##  5 0.99  0.000999   0.00387   0.00387 
##  6 0.787 0.000999   0.00195   0.00195 
##  7 0.94  0.000999   0.00332   0.00332 
##  8 0.817 0.000999   0.00218   0.00218 
##  9 0.955 0.000999   0.00348   0.00348 
## 10 0.449 0.000999   0.000361  0.000361
## # … with 9,990 more rows
…
For convenience, we’ll primarily stick to the PI-based intervals in this ebook.

3.3.2.1 Rethinking: What do compatibility intervals mean?

At the start of this section, McElreath poked a little at frequentist confidence intervals. For an introduction to confidence intervals from the perspective of a frequentist, you might check out Cumming’s (2014) The new statistics: Why and how and the works referenced therein. Though their definition isn’t the most intuitive, I usually use confidence intervals when I wear my frequentist hat.

3.3.3 Point estimates.

We’ve been calling point estimates measures of central tendency. If we arrange() our d tibble in descending order by posterior, we’ll see the corresponding p value for its MAP estimate.

BinomialGrid3of3 %>% 
  arrange(desc(posterior))

## # A tibble: 1,001 x 4
##        p    prior likelihood posterior
##    <dbl>    <dbl>      <dbl>     <dbl>
##  1 1     0.000999    0.00399   0.00399
##  2 0.999 0.000999    0.00398   0.00398
##  3 0.998 0.000999    0.00397   0.00397
##  4 0.997 0.000999    0.00396   0.00396
##  5 0.996 0.000999    0.00394   0.00394
##  6 0.995 0.000999    0.00393   0.00393
##  7 0.994 0.000999    0.00392   0.00392
##  8 0.993 0.000999    0.00391   0.00391
##  9 0.992 0.000999    0.00390   0.00390
## 10 0.991 0.000999    0.00389   0.00389
## # … with 991 more rows
…
(
  l <-
  BinomialGrid3of3 %>% 
  select(p) %>% 
  rename(decision = p) %>% 
  mutate(weighted_average_loss = purrr::map(decision, make_loss)) %>% 
  unnest(weighted_average_loss) 
)

## # A tibble: 1,001 x 2
##    decision weighted_average_loss
##       <dbl>                 <dbl>
##  1    0                     0.800
##  2    0.001                 0.799
##  3    0.002                 0.798
##  4    0.003                 0.797
##  5    0.004                 0.796
##  6    0.005                 0.795
##  7    0.006                 0.794
##  8    0.007                 0.793
##  9    0.008                 0.792
## 10    0.009                 0.791
## # … with 991 more rows
…
# how many grid points would you like?
n <- 1001
n_success <- 6
n_trials  <- 9

(
  d <-
  tibble(p = seq(from = 0, to = 1, length.out = n),
         # note we're still using a flat uniform prior
         prior  = 1) %>% 
  mutate(likelihood = dbinom(n_success, size = n_trials, prob = p)) %>% 
  mutate(posterior = (likelihood * prior) / sum(likelihood * prior))
)

## # A tibble: 1,001 x 4
##        p prior likelihood posterior
##    <dbl> <dbl>      <dbl>     <dbl>
##  1 0         1   0.        0.      
##  2 0.001     1   8.37e-17  8.37e-19
##  3 0.002     1   5.34e-15  5.34e-17
##  4 0.003     1   6.07e-14  6.07e-16
##  5 0.004     1   3.40e-13  3.40e-15
##  6 0.005     1   1.29e-12  1.29e-14
##  7 0.006     1   3.85e-12  3.85e-14
##  8 0.007     1   9.68e-12  9.68e-14
##  9 0.008     1   2.15e-11  2.15e-13
## 10 0.009     1   4.34e-11  4.34e-13
## # … with 991 more rows
…
